…
``` r
Wheel_data = 
 readxl::read_excel("./data/Trash-Wheel-Collection-Totals-8-6-19.xlsx",sheet = "Mr. Trash Wheel", range = "A2:N338") %>%  #import data from sheet 1
  janitor::clean_names() %>%  #use reasonable variable names
  drop_na(dumpster) %>% #omit rows that do not include dumpster-specific data
  mutate(
    sports_balls = sports_balls %>% 
      round() %>% 
      as.integer()
  )

Wheel_data
```

    ## # A tibble: 286 x 14
    ##    dumpster month  year date                weight_tons volume_cubic_ya…
    ##       <dbl> <chr> <dbl> <dttm>                    <dbl>            <dbl>
    ##  1        1 May    2014 2014-05-16 00:00:00        4.31               18
    ##  2        2 May    2014 2014-05-16 00:00:00        2.74               13
    ##  3        3 May    2014 2014-05-16 00:00:00        3.45               15
    ##  4        4 May    2014 2014-05-17 00:00:00        3.1                15
    ##  5        5 May    2014 2014-05-17 00:00:00        4.06               18
    ##  6        6 May    2014 2014-05-20 00:00:00        2.71               13
    ##  7        7 May    2014 2014-05-21 00:00:00        1.91                8
    ##  8        8 May    2014 2014-05-28 00:00:00        3.7                16
    ##  9        9 June   2014 2014-06-05 00:00:00        2.52               14
    ## 10       10 June   2014 2014-06-11 00:00:00        3.76               18
    ## # … with 276 more rows, and 8 more variables: plastic_bottles <dbl>,
    ## #   polystyrene <dbl>, cigarette_butts <dbl>, glass_bottles <dbl>,
    ## #   grocery_bags <dbl>, chip_bags <dbl>, sports_balls <int>,
    ## #   homes_powered <dbl>
…
#### Combine the data

``` r
combine_pre_data = 
  bind_rows(pre_data_2017,pre_data_2018) %>% 
  mutate(
    month = month.abb[as.numeric(month)],
    precipitation = as.numeric(precipitation)
  ) %>% 
  select(year, everything())

combine_pre_data 
```

    ## # A tibble: 24 x 3
    ##    year  month precipitation
    ##    <chr> <chr>         <dbl>
    ##  1 2017  Jan            2.34
    ##  2 2017  Feb            1.46
    ##  3 2017  Mar            3.57
    ##  4 2017  Apr            3.99
    ##  5 2017  May            5.64
    ##  6 2017  Jun            1.4 
    ##  7 2017  Jul            7.09
    ##  8 2017  Aug            4.44
    ##  9 2017  Sep            1.95
    ## 10 2017  Oct            0   
    ## # … with 14 more rows
…
``` r
pols_month
```

    ## # A tibble: 822 x 9
    ##    year  month gov_gop sen_gop rep_gop gov_dem sen_dem rep_dem president
    ##    <chr> <chr>   <dbl>   <dbl>   <dbl>   <dbl>   <dbl>   <dbl> <chr>    
    ##  1 1947  Jan        23      51     253      23      45     198 dem      
    ##  2 1947  Feb        23      51     253      23      45     198 dem      
    ##  3 1947  Mar        23      51     253      23      45     198 dem      
    ##  4 1947  Apr        23      51     253      23      45     198 dem      
    ##  5 1947  May        23      51     253      23      45     198 dem      
    ##  6 1947  Jun        23      51     253      23      45     198 dem      
    ##  7 1947  Jul        23      51     253      23      45     198 dem      
    ##  8 1947  Aug        23      51     253      23      45     198 dem      
    ##  9 1947  Sep        23      51     253      23      45     198 dem      
    ## 10 1947  Oct        23      51     253      23      45     198 dem      
    ## # … with 812 more rows
…
    ## Parsed with column specification:
    ## cols(
    ##   date = col_character(),
    ##   close = col_double()
    ## )

``` r
snp_data
```

    ## # A tibble: 787 x 4
    ##    year  month day   close
    ##    <chr> <chr> <chr> <dbl>
    ##  1 1950  Jan   3      17.0
    ##  2 1950  Oct   2      19.5
    ##  3 1950  Nov   1      19.5
    ##  4 1950  Dec   1      20.4
    ##  5 1950  Feb   1      17.2
    ##  6 1950  Mar   1      17.3
    ##  7 1950  Apr   3      18.0
    ##  8 1950  May   1      18.8
    ##  9 1950  Jun   1      17.7
    ## 10 1950  Jul   3      17.8
    ## # … with 777 more rows
…
``` r
unemployment_data
```

    ## # A tibble: 816 x 3
    ##    year  month unemployment
    ##    <chr> <chr>        <dbl>
    ##  1 1948  Jan            3.4
    ##  2 1948  Feb            3.8
    ##  3 1948  Mar            4  
    ##  4 1948  Apr            3.9
    ##  5 1948  May            3.5
    ##  6 1948  Jun            3.6
    ##  7 1948  Jul            3.6
    ##  8 1948  Aug            3.9
    ##  9 1948  Sep            3.8
    ## 10 1948  Oct            3.7
    ## # … with 806 more rows

### Merge and join

``` r
join_data = left_join(pols_month, snp_data, by = c('year','month')) # join pols and snp
final_join = left_join(join_data, unemployment_data,by = c('year','month')) #join unemployment
final_join
```

    ## # A tibble: 822 x 12
    ##    year  month gov_gop sen_gop rep_gop gov_dem sen_dem rep_dem president
    ##    <chr> <chr>   <dbl>   <dbl>   <dbl>   <dbl>   <dbl>   <dbl> <chr>    
    ##  1 1947  Jan        23      51     253      23      45     198 dem      
    ##  2 1947  Feb        23      51     253      23      45     198 dem      
    ##  3 1947  Mar        23      51     253      23      45     198 dem      
    ##  4 1947  Apr        23      51     253      23      45     198 dem      
    ##  5 1947  May        23      51     253      23      45     198 dem      
    ##  6 1947  Jun        23      51     253      23      45     198 dem      
    ##  7 1947  Jul        23      51     253      23      45     198 dem      
    ##  8 1947  Aug        23      51     253      23      45     198 dem      
    ##  9 1947  Sep        23      51     253      23      45     198 dem      
    ## 10 1947  Oct        23      51     253      23      45     198 dem      
    ## # … with 812 more rows, and 3 more variables: day <chr>, close <dbl>,
    ## #   unemployment <dbl>
…
    ## Parsed with column specification:
    ## cols(
    ##   `Year of Birth` = col_double(),
    ##   Gender = col_character(),
    ##   Ethnicity = col_character(),
    ##   `Child's First Name` = col_character(),
    ##   Count = col_double(),
    ##   Rank = col_double()
    ## )

``` r
Popular_baby
```

    ## # A tibble: 12,181 x 6
    ##    year_of_birth childs_first_name gender ethnicity             count  rank
    ##            <dbl> <chr>             <chr>  <chr>                 <dbl> <dbl>
    ##  1          2016 Olivia            female asian and pacific is…   172     1
    ##  2          2016 Chloe             female asian and pacific is…   112     2
    ##  3          2016 Sophia            female asian and pacific is…   104     3
    ##  4          2016 Emily             female asian and pacific is…    99     4
    ##  5          2016 Emma              female asian and pacific is…    99     4
    ##  6          2016 Mia               female asian and pacific is…    79     5
    ##  7          2016 Charlotte         female asian and pacific is…    59     6
    ##  8          2016 Sarah             female asian and pacific is…    57     7
    ##  9          2016 Isabella          female asian and pacific is…    56     8
    ## 10          2016 Hannah            female asian and pacific is…    56     8
    ## # … with 12,171 more rows
…
